﻿{
  "Heroes": [
    {
      "Name": "Ana",
      "Description": "Ana’s versatile arsenal allows her to affect heroes all over the battlefield. Her Biotic Rifle rounds and Biotic Grenades heal allies and damage or impair enemies; her sidearm tranquilizes key targets, and Nano Boost gives one of her comrades a considerable increase in power.",
      "ImageUrl": "",
      "Class": 2
    },
    {
      "Name": "Bastion",
      "Description": "Repair protocols and the ability to transform between stationary Assault, mobile Recon and devastating Tank configurations provide Bastion with a high probability of victory.",
      "ImageUrl": "https://i.imgur.com/FBXAU5E.gifv",
      "Class": 0
    },
    {
      "Name": "Brigitte",
      "Description": "Brigitte specializes in armor. She can throw Repair Packs to heal teammates, or automatically heal nearby allies when she damages foes with her Flail. Her Flail is capable of a wide swing to strike multiple targets, or a Whip Shot that stuns an enemy at range. When entering the fray, Barrier Shield provides personal defense while she attacks enemies with Shield Bash. Brigitte’s ultimate ability, Rally, gives her a substantial short-term boost of speed and provides long-lasting armor to all her nearby allies.",
      "ImageUrl": "",
      "Class": 2
    },
    {
      "Name": "D.Va",
      "Description": "D.Va’s mech is nimble and powerful—its twin Fusion Cannons blast away with autofire at short range, and she can use its Boosters to barrel over enemies and obstacles, or deflect attacks with her projectile-dismantling Defense Matrix.",
      "ImageUrl": "",
      "Class": 1
    },
    {
      "Name": "Doomfist",
      "Description": "Doomfist’s cybernetics make him a highly-mobile, powerful frontline fighter. In addition to dealing ranged damage with his Hand Cannon, Doomfist can slam the ground, knock enemies into the air and off balance, or charge into the fray with his Rocket Punch. When facing a tightly packed group, Doomfist leaps out of view, then crashes down to earth with a spectacular Meteor Strike.",
      "ImageUrl": "",
      "Class": 0
    },
    {
      "Name": "Genji",
      "Description": "Genji flings precise and deadly Shuriken at his targets, and uses his technologically-advanced katana to deflect projectiles or deliver a Swift Strike that cuts down enemies.",
      "ImageUrl": "",
      "Class": 0
    },
    {
      "Name": "Hanzo",
      "Description": "Hanzo’s versatile arrows can reveal his enemies or fragment to strike multiple targets. He can scale walls to fire his bow from on high, or summon a titanic spirit dragon.",
      "ImageUrl": "https://i.imgur.com/3o7IG5v.gifv",
      "Class": 0
    },
    {
      "Name": "Junkrat",
      "Description": "Junkrat’s area-denying armaments include a Frag Launcher that lobs bouncing grenades, Concussion Mines that send enemies flying, and Steel Traps that stop foes dead in their tracks.",
      "ImageUrl": "",
      "Class": 0
    },
    {
      "Name": "Lucio",
      "Description": "On the battlefield, Lúcio’s cutting-edge Sonic Amplifier buffets enemies with projectiles and knocks foes back with blasts of sound. His songs can both heal his team or boost their movement speed, and he can switch between tracks on the fly.",
      "ImageUrl": "",
      "Class": 2
    },
    {
      "Name": "McCree",
      "Description": "Armed with his Peacekeeper revolver, McCree takes out targets with deadeye precision and dives out of danger with eagle-like speed.",
      "ImageUrl": "",
      "Class": 0
    },
    {
      "Name": "Mei",
      "Description": "Mei’s weather-altering devices slow opponents and protect locations. Her Endothermic Blaster unleashes damaging icicles and frost streams, and she can Cryo-Freeze herself to guard against counterattacks, or obstruct the opposing team's movements with an Ice Wall.",
      "ImageUrl": "",
      "Class": 0
    },
    {
      "Name": "Mercy",
      "Description": "Mercy’s Valkyrie Suit helps keep her close to teammates like a guardian angel; healing, resurrecting or strengthening them with the beams emanating from her Caduceus Staff.",
      "ImageUrl": "https://i.imgur.com/jO0ik8p.gifv",
      "Class": 2
    },
    {
      "Name": "Moira",
      "Description": "Moira’s biotic abilities enable her to contribute healing or damage in any crisis. While Biotic Grasp gives Moira short-range options, her Biotic Orbs contribute longer-range, hands-off damage and healing; she can also Fade to escape groups or remain close to allies in need of support. Once she’s charged Coalescence, Moira can save multiple allies from elimination at once or finish off weakened enemies.",
      "ImageUrl": "",
      "Class": 2
    },
    {
      "Name": "Orisa",
      "Description": "Orisa serves as the central anchor of her team, and defends her teammates from the frontline with a protective barrier. She can attack from long range, fortify her own defenses, launch graviton charges to slow and move enemies, and deploy a Supercharger to boost the damage output of multiple allies at once.",
      "ImageUrl": "",
      "Class": 1
    },
    {
      "Name": "Pharah",
      "Description": "Soaring through the air in her combat armor, and armed with a launcher that lays down high-explosive rockets, Pharah is a force to be reckoned with.",
      "ImageUrl": "https://i.imgur.com/XBFSD2a.gifv",
      "Class": 0
    },
    {
      "Name": "Reaper",
      "Description": "Hellfire Shotguns, the ghostly ability to become immune to damage, and the power to step between shadows make Reaper one of the deadliest beings on Earth.",
      "ImageUrl": "https://i.imgur.com/ZXxgRTj.gifv",
      "Class": 0
    },
    {
      "Name": "Reinhardt",
      "Description": "Clad in powered armor and swinging his hammer, Reinhardt leads a rocket-propelled charge across the battleground and defends his squadmates with a massive energy barrier.",
      "ImageUrl": "https://i.imgur.com/DZcsjjP.gifv",
      "Class": 1
    },
    {
      "Name": "Roadhog",
      "Description": "Roadhog uses his signature Chain Hook to pull his enemies close before shredding them with blasts from his Scrap Gun. He’s hardy enough to withstand tremendous damage, and can recover his health with a short breather.",
      "ImageUrl": "",
      "Class": 1
    },
    {
      "Name": "Soldier:76",
      "Description": "Armed with cutting-edge weaponry, including an experimental pulse rifle that’s capable of firing spirals of high-powered Helix Rockets, Soldier: 76 has the speed and support know-how of a highly trained warrior.",
      "ImageUrl": "",
      "Class": 0
    },
    {
      "Name": "Sombra",
      "Description": "Stealth and debilitating attacks make Sombra a powerful infiltrator. Her hacking can disrupt her enemies, ensuring they're easier to take out, while her EMP provides the upper hand against multiple foes at once. Sombra’s ability to Translocate and camouflage herself makes her a hard target to pin down.",
      "ImageUrl": "",
      "Class": 0
    },
    {
      "Name": "Symmetra",
      "Description": "Symmetra utilizes her light-bending Photon Projector to dispatch adversaries, shield her associates, construct teleportation pads and deploy particle-blasting Sentry Turrets.",
      "ImageUrl": "https://i.imgur.com/sC8lOWr.gifv",
      "Class": 0
    },
    {
      "Name": "Torbjorn",
      "Description": "Torbjörn’s extensive arsenal includes a rivet gun and hammer, as well as a personal forge that he can use to build upgradeable turrets and dole out protective armor packs.",
      "ImageUrl": "https://i.imgur.com/mzgZOXn.gifv",
      "Class": 0
    },
    {
      "Name": "Tracer",
      "Description": "\"Toting twin pulse pistols, energy-based time bombs, and rapid-fire banter, Tracer is able to \"blink\" through space and rewind her personal timeline as she battles to right wrongs the world over.\"",
      "ImageUrl": "https://i.imgur.com/mhriJJO.gifv",
      "Class": 0
    },
    {
      "Name": "Widowmaker",
      "Description": "Widowmaker equips herself with whatever it takes to eliminate her targets, including mines that dispense poisonous gas, a visor that grants her squad infra-sight, and a powerful sniper rifle that can fire in fully-automatic mode.",
      "ImageUrl": "https://i.imgur.com/c2LpYKu.gifv",
      "Class": 0
    },
    {
      "Name": "Winston",
      "Description": "Winston wields impressive inventions—a jump pack, electricity-blasting Tesla Cannon, portable shield projector and more—with literal gorilla strength.",
      "ImageUrl": "https://i.imgur.com/r86QIQV.gifv",
      "Class": 1
    },
    {
      "Name": "Zarya",
      "Description": "Deploying powerful personal barriers that convert incoming damage into energy for her massive Particle Cannon, Zarya is an invaluable asset on the front lines of any battle.",
      "ImageUrl": "",
      "Class": 1
    },
    {
      "Name": "Zenyatta",
      "Description": "Zenyatta calls upon orbs of harmony and discord to heal his teammates and weaken his opponents, all while pursuing a transcendent state of immunity to damage.",
      "ImageUrl": "https://i.imgur.com/qrrKTx7.gifv",
      "Class": 2
    }
  ]

}